{
    "self": "https://example.com/rest/api/3/user?accountId=123",
    "key": "poeplehuman",
    "accountId": "123",
    "name": "poeplehuman",
    "emailAddress": "poeplehuman@example.com",
    "avatarUrls": {
        "16x16": "https://avatar-cdn.atlassian.com/e39e0037e1b33099b3274cc0db8b7903?s=16&d=https%3A%2F%2Fsecure.gravatar.com%2Favatar%2Fe39e0037e1b33099b3274cc0db8b7903%3Fd%3Dmm%26s%3D16%26noRedirect%3Dtrue",
        "24x24": "https://avatar-cdn.atlassian.com/e39e0037e1b33099b3274cc0db8b7903?s=24&d=https%3A%2F%2Fsecure.gravatar.com%2Favatar%2Fe39e0037e1b33099b3274cc0db8b7903%3Fd%3Dmm%26s%3D24%26noRedirect%3Dtrue",
        "32x32": "https://avatar-cdn.atlassian.com/e39e0037e1b33099b3274cc0db8b7903?s=32&d=https%3A%2F%2Fsecure.gravatar.com%2Favatar%2Fe39e0037e1b33099b3274cc0db8b7903%3Fd%3Dmm%26s%3D32%26noRedirect%3Dtrue",
        "48x48": "https://avatar-cdn.atlassian.com/e39e0037e1b33099b3274cc0db8b7903?s=48&d=https%3A%2F%2Fsecure.gravatar.com%2Favatar%2Fe39e0037e1b33099b3274cc0db8b7903%3Fd%3Dmm%26s%3D48%26noRedirect%3Dtrue"
    },
    "displayName": "Human People",
    "active": true,
    "timeZone": "America/Chicago",
    "locale": "en_US",
    "groups": {
        "size": 5,
        "items": []
    },
    "applicationRoles": {
        "size": 4,
        "items": []
    },
    "expand": "groups,applicationRoles"
}